Asset pricing anomalies
…
4 Predictive panels

In R, panel models are handled via the great plm package, so we need it! Also: lets load a small dataset and compute forward returns.

if(!require(plm)){install.packages("plm")}
library(plm)
load("data.RData")                                     # Load data
data <- data %>%  
  group_by(Tick) %>%
  mutate(F_return = dplyr::lead(Close)/Close - 1) %>%  # Add return column
  ungroup()
data

## # A tibble: 7,650 x 10
##    Tick  Date       Close Vol_1M Mkt_Cap   P2B   D2E Prof_Marg ESG_rank F_return
##    <chr> <date>     <dbl>  <dbl>   <dbl> <dbl> <dbl>     <dbl>    <dbl>    <dbl>
##  1 AAPL  1999-12-31 0.791   53.6  16532.  3.35  9.66      8.31       NA  0.00885
##  2 AAPL  2000-01-31 0.798   80.8  16683.  3.38  6.80      7.81       NA  0.105  
##  3 AAPL  2000-02-29 0.882   60.0  18480.  3.73  6.80      7.81       NA  0.184  
##  4 AAPL  2000-03-31 1.04    75.7  21896.  4.68  6.80      7.81       NA -0.0862 
##  5 AAPL  2000-04-28 0.954   81.6  20002.  4.28  7.12     12.0        NA -0.323  
##  6 AAPL  2000-05-31 0.646   61.3  13670.  2.90  7.12     12.0        NA  0.248  
##  7 AAPL  2000-06-30 0.806   66.6  17047.  3.64  7.12     12.0        NA -0.0298 
##  8 AAPL  2000-07-31 0.782   76.7  16539.  3.53  7.18     11.0        NA  0.198  
##  9 AAPL  2000-08-31 0.937   56.7  19803.  4.24  7.18     11.0        NA -0.577  
## 10 AAPL  2000-09-29 0.396  231.    8368.  1.85  7.18     11.0        NA -0.240  
## #  with 7,640 more rows
…
