Lasso & sparse portfolios
…
sep_date <- as.Date("2010-01-01")           # This date separates in-sample vs out-of-sample
t_oos <- data$Date[data$Date>sep_date] %>%  # Out-of-sample dates (i.e., testing set)
    unique() %>%                            # Remove duplicates
    as.Date(origin = "1970-01-01")          # Transform in date format
returns <- data %>%                         # Computing returns, in matrix format, in 2 steps:
    select(Date, Tick, P_Return) %>%        # 1. Keep returns along with dates & firm names
    pivot_wider(names_from = Tick,          # 2. Put in matrix shape
                values_from = P_Return)    
# Below, we initialise the variables used in the backtesting loop
portf_weights <- matrix(0, nrow = length(t_oos), ncol = length(tick)) 
portf_returns <- vector(mode = "numeric", length = length(t_oos))                                                
returns                                     # A look at the returns

## # A tibble: 253 x 31
##    Date           AAPL      BA     BAC       C    CSCO      CVS      CVX       D
##    <date>        <dbl>   <dbl>   <dbl>   <dbl>   <dbl>    <dbl>    <dbl>   <dbl>
##  1 2000-01-31  0.00885  0.0739 -0.0349  0.0236  0.0222 -0.122   -0.0346   0.0637
##  2 2000-02-29  0.105   -0.167  -0.0503 -0.0896  0.207   0.00179 -0.0993  -0.106 
##  3 2000-03-31  0.184    0.0237  0.152   0.157   0.170   0.0732   0.238    0.0477
##  4 2000-04-28 -0.0862   0.0496 -0.0656 -0.0121 -0.103   0.160   -0.0791   0.171 
##  5 2000-05-31 -0.323   -0.0121  0.142   0.0540 -0.179   0        0.0936   0.0313
##  6 2000-06-30  0.248    0.0704 -0.224  -0.0312  0.116  -0.0805  -0.0825  -0.0628
##  7 2000-07-31 -0.0298   0.167   0.102   0.170   0.0295 -0.0112  -0.0687   0.0598
##  8 2000-08-31  0.198    0.102   0.142   0.107   0.0487 -0.0596   0.0785   0.179 
##  9 2000-09-29 -0.577    0.202  -0.0225 -0.0742 -0.195   0.247    0.00864  0.0982
## 10 2000-10-31 -0.240    0.0513 -0.0823 -0.0266 -0.0249  0.144   -0.0367   0.0255
## #  with 243 more rows, and 22 more variables: DIS <dbl>, F <dbl>, GE <dbl>,
## #   HD <dbl>, IBM <dbl>, INTC <dbl>, JNJ <dbl>, JPM <dbl>, K <dbl>, MCK <dbl>,
## #   MRK <dbl>, MSFT <dbl>, ORCL <dbl>, PFE <dbl>, PG <dbl>, T <dbl>, UNH <dbl>,
## #   UPS <dbl>, VZ <dbl>, WFC <dbl>, WMT <dbl>, XOM <dbl>
…
