Data pre-processing
…
The two most affected columns are indeed P2B (price-to-book) and D2E (debt-to-equity).

Lets deal with them using 2 different techniques: times-series imputation and cross-sectional imputation.

First, let us have a look closer.

data_full %>% filter(is.na(P2B))      # Where are the missing P2B ratios?

## # A tibble: 22,664 x 7
##    Tick  Date         Close Vol_1M Mkt_Cap   P2B   D2E
##    <chr> <date>       <dbl>  <dbl>   <dbl> <dbl> <dbl>
##  1 ADMT  2006-06-30   0.3     84.0    16.2    NA    NA
##  2 ADMT  2006-07-31   0.256   85.7    13.8    NA    NA
##  3 ADMT  2006-08-31   0.28    84.9    15.1    NA    NA
##  4 ADMT  2006-09-29   0.33   126.     17.8    NA    NA
##  5 ADMT  2006-10-31   0.33   148.     17.8    NA    NA
##  6 ADMT  2006-11-30   0.28   106.     15.1    NA    NA
##  7 ADSK  2019-08-30 143.      39.0 31366.     NA    NA
##  8 ADSK  2019-09-30 148.      34.3 32433.     NA    NA
##  9 ADSK  2019-10-31 147.      29.1 32358.     NA    NA
## 10 ADSK  2019-11-29 181.      21.8 39723.     NA    NA
## #  with 22,654 more rows
…
6 One last thing

6.1 Consistency in persistence!

Inputs in financial backtesting can all be considered as time-series. There are many ways these tools can be characterised, but we underline one important property: persistence. One simply way to assess persistence is to compute auto-correlations.

acf_2 <- function(v){    # We build a function that keeps the first order correlation
  return(acf(v, lag.max = 1, plot = FALSE)$acf[2])
}
data %>% 
  group_by(Tick) %>% 
  summarise_if(is.numeric, acf_2) # We apply this function to features

## # A tibble: 30 x 8
##    Tick  Close Vol_1M Mkt_Cap   P2B   D2E Prof_Marg F_Return
##    <chr> <dbl>  <dbl>   <dbl> <dbl> <dbl>     <dbl>    <dbl>
##  1 AAPL  0.951  0.672   0.959 0.926 0.979     0.952  0.0481 
##  2 BA    0.985  0.684   0.982 0.956 0.941     0.646  0.0407 
##  3 BAC   0.978  0.874   0.969 0.921 0.957     0.815  0.0927 
##  4 C     0.992  0.875   0.971 0.976 0.989     0.725  0.0676 
##  5 CSCO  0.969  0.781   0.950 0.924 0.986     0.713 -0.0289 
##  6 CVS   0.986  0.672   0.983 0.960 0.971     0.733 -0.0145 
##  7 CVX   0.986  0.691   0.977 0.873 0.974     0.777 -0.155  
##  8 D     0.988  0.642   0.982 0.984 0.949     0.656 -0.0384 
##  9 DIS   0.974  0.739   0.967 0.972 0.949     0.860  0.0598 
## 10 F     0.945  0.811   0.963 0.798 0.719     0.766 -0.00353
## #  with 20 more rows
…
or change the computation of the dependent variable to make it more persistent. This is easily done by augmenting the horizon of the returns.

Below, we provide examples of implementation for each alternative. We start with the second one.

data_1 <- data  %>% 
  group_by(Tick) %>%                                   # Grouping
  mutate(F_Return = lead(Close) / Close - 1,           # Adding 1M future returns
         FL_Return = lead(Close, 12) / Close - 1) %>%  # Adding 12M (Long-term) future returns   
  na.omit() %>%                                        # Take out missing data
  ungroup()                                            # Ungrouping
data_1 %>% group_by(Tick) %>% 
  summarise(autocor = acf_2(FL_Return))                  # Showing the results

## # A tibble: 30 x 2
##    Tick  autocor
##    <chr>   <dbl>
##  1 AAPL    0.924
##  2 BA      0.932
##  3 BAC     0.835
##  4 C       0.881
##  5 CSCO    0.907
##  6 CVS     0.909
##  7 CVX     0.894
##  8 D       0.850
##  9 DIS     0.910
## 10 F       0.911
## #  with 20 more rows
…
data_2 <- data %>% 
  group_by(Tick) %>%                                          # Group by stock
  mutate(D_Mkt_Cap = Mkt_Cap / lag(Mkt_Cap) - 1,              # Relative variation: scale issue
         D_P2B = P2B - lag(P2B),                              # Absolute variation for the rest
         D_Vol_1M = Vol_1M - lag(Vol_1M),
         D_D2E = D2E - lag(D2E),
         D_Prof_Marg = Prof_Marg - lag(Prof_Marg)) %>% 
  na.omit() %>%                                               # Take out missing data
  ungroup()                                                   # Ungroup!
data_2 %>% group_by(Tick) %>% 
  summarise_if(is.numeric, acf_2) %>%
  mutate_if(is.numeric, round, digits = 3)                    # Show the results

## # A tibble: 30 x 13
##    Tick  Close Vol_1M Mkt_Cap   P2B   D2E Prof_Marg F_Return D_Mkt_Cap  D_P2B
##    <chr> <dbl>  <dbl>   <dbl> <dbl> <dbl>     <dbl>    <dbl>     <dbl>  <dbl>
##  1 AAPL  0.951  0.668   0.959 0.926 0.979     0.952    0.049     0.055  0.27 
##  2 BA    0.985  0.683   0.982 0.956 0.941     0.646    0.046     0.069  0.049
##  3 BAC   0.978  0.873   0.969 0.921 0.957     0.815    0.092     0.148 -0.01 
##  4 C     0.992  0.875   0.97  0.975 0.989     0.725    0.068     0.179  0.122
##  5 CSCO  0.968  0.781   0.947 0.929 0.985     0.714   -0.03     -0.033 -0.033
##  6 CVS   0.986  0.665   0.983 0.965 0.971     0.733   -0.015    -0.046  0.06 
##  7 CVX   0.985  0.691   0.976 0.874 0.973     0.777   -0.16     -0.158 -0.165
##  8 D     0.988  0.643   0.982 0.984 0.949     0.656   -0.028    -0.013 -0.081
##  9 DIS   0.975  0.738   0.968 0.972 0.949     0.86     0.075     0.086 -0.067
## 10 F     0.947  0.812   0.965 0.797 0.719     0.766   -0.006     0.021  0.064
## #  with 20 more rows, and 3 more variables: D_Vol_1M <dbl>, D_D2E <dbl>,
## #   D_Prof_Marg <dbl>
…
